[
  {
    "description": "Add parameter --quiet to main deploy command and prerequisites section to Readme",
    "type": "patch"
  },
  {
    "description": "Internal maintenance: use large docker image google-cloud-sdk",
    "type": "minor"
  }
]